<svg width="40" height="40" viewBox="0 0 40 40" fill="none" xmlns="http://www.w3.org/2000/svg">
<path d="M0.5 20C0.5 9.23045 9.23045 0.5 20 0.5C30.7696 0.5 39.5 9.23045 39.5 20C39.5 30.7696 30.7696 39.5 20 39.5C9.23045 39.5 0.5 30.7696 0.5 20Z" stroke="#7E828F" stroke-opacity="0.3"/>
<g clip-path="url(#clip0_1_592)">
<g opacity="0.5">
<path opacity="0.5" d="M28.9999 13.7822C28.3247 14.0847 27.6102 14.2852 26.8789 14.3772C27.2597 14.1404 27.5969 13.8364 27.8749 13.4795C28.1557 13.1193 28.37 12.7096 28.5075 12.2705C27.7806 12.7153 26.9835 13.0265 26.1522 13.19C25.814 12.8187 25.4062 12.5211 24.9534 12.3149C24.4831 12.1015 23.9737 11.9937 23.4595 11.999C22.9744 11.9974 22.4939 12.0946 22.0458 12.2849C21.5977 12.4752 21.1908 12.7549 20.8488 13.1077C20.5049 13.4585 20.2323 13.8759 20.0467 14.3357C19.8612 14.7954 19.7665 15.2883 19.768 15.7859C19.7684 16.0769 19.7994 16.3671 19.8602 16.6515C18.371 16.5712 16.9153 16.1685 15.5887 15.4699C14.3012 14.7883 13.1655 13.8403 12.2532 12.6858C11.9347 13.27 11.7653 13.9273 11.7607 14.5967C11.7528 15.2293 11.9033 15.8534 12.1978 16.4093C12.4854 16.9509 12.8968 17.4128 13.3967 17.7555C12.8089 17.738 12.2339 17.5758 11.7201 17.2824V17.3184C11.7226 18.1992 12.0217 19.052 12.5667 19.7326C13.1068 20.4033 13.856 20.8621 14.6877 21.0315C14.369 21.1294 14.0382 21.1794 13.7056 21.18C13.4751 21.1806 13.2451 21.1565 13.0195 21.1081C13.2488 21.8536 13.7003 22.5064 14.3105 22.9746C14.9338 23.4524 15.6861 23.7201 16.4638 23.7409C15.8235 24.2482 15.1072 24.6456 14.3428 24.9177C13.5485 25.203 12.7139 25.3523 11.8723 25.3595C11.5804 25.359 11.2888 25.3407 10.999 25.3046C11.8251 25.8484 12.7216 26.2704 13.6622 26.5581C14.6348 26.8552 15.6446 27.0041 16.6593 26.9999C20.0702 26.8681 22.6719 25.6988 24.4646 23.4921C26.1867 21.4773 27.1471 18.8957 27.1712 16.2163C27.1712 16.0599 27.1654 15.8975 27.1537 15.7291C27.8734 15.1957 28.4974 14.5382 28.9981 13.786L28.9999 13.7822Z" fill="#0C2050"/>
</g>
</g>
<defs>
<clipPath id="clip0_1_592">
<rect width="18" height="15" fill="white" transform="translate(11 12)"/>
</clipPath>
</defs>
</svg>
